Getting lyrics with Genius API
…
songs

# A tibble: 245 × 6
   song                 url                      date  artist featu…¹ rel_date  
   <chr>                <chr>                    <chr> <chr>  <chr>   <date>    
 1 Empire State of Mind /wiki/Jay-Z              Nove… "Jay-… <NA>    2009-11-21
 2 BedRock              /wiki/Young_Money_Enter… Janu… "Youn… <NA>    2010-01-23
 3 Say Something        /wiki/Timbaland          Marc… "Timb… <NA>    2010-03-27
 4 Nothin' on You       /wiki/Nothin%27_on_You   Apri… "B.o.… Bruno … 2010-04-24
 5 Over                 /wiki/Drake_(musician)   June… "Drak… <NA>    2010-06-12
 6 Your Love            /wiki/Nicki_Minaj        July… "Nick… <NA>    2010-07-10
 7 Love the Way You Lie /wiki/Eminem             Sept… "Emin… <NA>    2010-09-04
 8 Fancy                /wiki/Drake_(musician)   Octo… "Drak… <NA>    2010-10-30
 9 Right Above It       /wiki/Lil_Wayne          Nove… "Lil … <NA>    2010-11-06
10 No Hands             /wiki/Waka_Flocka_Flame  Dece… "Waka… <NA>    2010-12-11
# … with 235 more rows, and abbreviated variable name ¹​features
# ℹ Use `print(n = ...)` to see more rows
…
art_sng_lyr_df

# A tibble: 245 × 4
   song                 artist              rel_date   lyrics                   
   <chr>                <chr>               <date>     <chr>                    
 1 Empire State of Mind "Jay-Z"             2009-11-21  <NA>                    
 2 BedRock              "Young Money"       2010-01-23 "I-I-I-I can make your b…
 3 Say Something        "Timbaland"         2010-03-27 "This shit was all I kne…
 4 Nothin' on You       "B.o.B "            2010-04-24  <NA>                    
 5 Over                 "Drake"             2010-06-12 "Uh, uh Young Money Yeah…
 6 Your Love            "Nicki Minaj"       2010-07-10  <NA>                    
 7 Love the Way You Lie "Eminem"            2010-09-04 "Just gonna stand there …
 8 Fancy                "Drake"             2010-10-30 "Go, go 'head (Go, go, g…
 9 Right Above It       "Lil Wayne"         2010-11-06 "Kane is in the building…
10 No Hands             "Waka Flocka Flame" 2010-12-11 "Listen to this track, b…
# … with 235 more rows
# ℹ Use `print(n = ...)` to see more rows
