Text Mining
…
Text Mining

library(tidyverse)
library(tidytext)
library(ggwordcloud)
source('../functions.R')

words_df <- read_csv('../data/lyr_df.csv') |>
  mutate(song_art = glue::glue('{song} - {artist}')) |>
  unnest_tokens(word, lyrics)

words_df

# A tibble: 433,941 × 6
   song                                       artist hip_h…¹ genre song_…² word 
   <chr>                                      <chr>    <dbl> <chr> <glue>  <chr>
 1 (if you're not in it for love) i'm outta … Shani…       0 Coun… (if yo… three
 2 (if you're not in it for love) i'm outta … Shani…       0 Coun… (if yo… four 
 3 (if you're not in it for love) i'm outta … Shani…       0 Coun… (if yo… five 
 4 (if you're not in it for love) i'm outta … Shani…       0 Coun… (if yo… mind 
 5 (if you're not in it for love) i'm outta … Shani…       0 Coun… (if yo… if   
 6 (if you're not in it for love) i'm outta … Shani…       0 Coun… (if yo… i    
 7 (if you're not in it for love) i'm outta … Shani…       0 Coun… (if yo… sit  
 8 (if you're not in it for love) i'm outta … Shani…       0 Coun… (if yo… down 
 9 (if you're not in it for love) i'm outta … Shani…       0 Coun… (if yo… can  
10 (if you're not in it for love) i'm outta … Shani…       0 Coun… (if yo… i    
# … with 433,931 more rows, and abbreviated variable names ¹​hip_hop_rnb,
#   ²​song_art
# ℹ Use `print(n = ...)` to see more rows
…
data("stop_words")

words_trimmed_df <- words_df |> 
    anti_join(stop_words)

words_trimmed_df

# A tibble: 137,153 × 6
   song                                       artist hip_h…¹ genre song_…² word 
   <chr>                                      <chr>    <dbl> <chr> <glue>  <chr>
 1 (if you're not in it for love) i'm outta … Shani…       0 Coun… (if yo… mind 
 2 (if you're not in it for love) i'm outta … Shani…       0 Coun… (if yo… sit  
 3 (if you're not in it for love) i'm outta … Shani…       0 Coun… (if yo… buy  
 4 (if you're not in it for love) i'm outta … Shani…       0 Coun… (if yo… round
 5 (if you're not in it for love) i'm outta … Shani…       0 Coun… (if yo… town 
 6 (if you're not in it for love) i'm outta … Shani…       0 Coun… (if yo… line 
 7 (if you're not in it for love) i'm outta … Shani…       0 Coun… (if yo… time 
 8 (if you're not in it for love) i'm outta … Shani…       0 Coun… (if yo… home 
 9 (if you're not in it for love) i'm outta … Shani…       0 Coun… (if yo… woman
10 (if you're not in it for love) i'm outta … Shani…       0 Coun… (if yo… pret…
# … with 137,143 more rows, and abbreviated variable names ¹​hip_hop_rnb,
#   ²​song_art
# ℹ Use `print(n = ...)` to see more rows
…
top_words_by_song <- words_trimmed_df |> 
    group_by(genre, song_art) |> 
    count(word) |> slice_max(n, n = 1)

top_words_by_song

# A tibble: 1,893 × 4
# Groups:   genre, song_art [1,236]
   genre          song_art                                           word      n
   <chr>          <glue>                                             <chr> <int>
 1 Country / Rock (if you're not in it for love) i'm outta here! - … love      9
 2 Country / Rock (this ain't) no thinkin' thing - Trace Adkins      thin…    14
 3 Country / Rock 1000hp - Godsmack                                  time      5
 4 Country / Rock 16 - Highly Suspect                                ya       20
 5 Country / Rock 19 somethin' - Mark Wills                          1980      4
 6 Country / Rock 19 somethin' - Mark Wills                          days      4
 7 Country / Rock 19 somethin' - Mark Wills                          world     4
 8 Country / Rock a better man - Clint Black                         leav…     7
 9 Country / Rock a broken wing - Martina McBride                    brok…     6
10 Country / Rock a broken wing - Martina McBride                    wing      6
# … with 1,883 more rows
# ℹ Use `print(n = ...)` to see more rows
…
